{
  "extends": ["gitlab>vito-templates/renovate-bot//containers-renovate"],
  "packageRules": [
    {
      "matchPackageNames": [
        "registry.gitlab.com/vito-containers/alpine",
        "registry.gitlab.com/vito-containers/apkbuild-tools"
      ],
      "matchUpdateTypes": ["patch", "digest"],
      "automerge": true,
      "platformAutomerge": true
    }
  ],
  "assignees": ["vitoyucepi"]
}
